<?xml version="1.0" encoding="utf-8"?>
<!-- Generator: Adobe Illustrator 23.1.1, SVG Export Plug-In . SVG Version: 6.00 Build 0)  -->
<svg version="1.1" id="Layer_1" xmlns="http://www.w3.org/2000/svg" xmlns:xlink="http://www.w3.org/1999/xlink" x="0px" y="0px"
	 viewBox="0 0 80 80" enable-background="new 0 0 80 80" xml:space="preserve">
<g>
	
		<circle fill="#FCD9B7" stroke="#606060" stroke-width="1.3221" stroke-linecap="round" stroke-linejoin="round" stroke-miterlimit="10" cx="51.2" cy="21.9" r="3.3"/>
	
		<circle fill="#FCD9B7" stroke="#606060" stroke-width="1.3221" stroke-linecap="round" stroke-linejoin="round" stroke-miterlimit="10" cx="29.4" cy="21.9" r="3.3"/>
	
		<path fill="#A6CCC8" stroke="#606060" stroke-width="1.3254" stroke-linecap="round" stroke-linejoin="round" stroke-miterlimit="10" d="
		M63.1,47c0,0-1.3-7.3-6-7.9l-16.8-2l-16.8,2c-4.8,0.7-6,7.9-6,7.9H63.1z"/>
	
		<path fill="#6AA59D" stroke="#606060" stroke-width="1.3254" stroke-linecap="round" stroke-linejoin="round" stroke-miterlimit="10" d="
		M32.7,38.2c0-1.4,3.4-1.5,7.6-1.5s7.6,0.1,7.6,1.5c0,1.4-3.4,2.5-7.6,2.5S32.7,39.6,32.7,38.2"/>
	
		<path fill="#FCD9B7" stroke="#606060" stroke-width="1.3221" stroke-linecap="round" stroke-linejoin="round" stroke-miterlimit="10" d="
		M36,40V29.8h8.6V40"/>
	<g>
		<path fill="#BFBFBF" d="M10.3,74.9c-0.4,0-0.7-0.3-0.7-0.7V73c0-1.1,0.9-2.1,2.1-2.1h56.7c1.1,0,2.1,0.9,2.1,2.1v1.2
			c0,0.4-0.3,0.7-0.7,0.7H10.3"/>
		<path fill="#606060" d="M68.3,71.6c0.8,0,1.4,0.6,1.4,1.4v1.2H10.3V73c0-0.8,0.6-1.4,1.4-1.4H68.3 M68.3,70.3H11.7
			c-1.5,0-2.7,1.2-2.7,2.7v1.2c0,0.7,0.6,1.3,1.3,1.3h59.5c0.7,0,1.3-0.6,1.3-1.3V73C71.1,71.5,69.8,70.3,68.3,70.3L68.3,70.3z"/>
	</g>
	<g>
		<path fill="#EAEAEA" d="M14.6,74.7c-0.8,0-1.4-0.6-1.4-1.4V45.7c0-1.1,0.9-2.1,2.1-2.1h49.4c1.1,0,2.1,0.9,2.1,2.1v27.6
			c0,0.8-0.6,1.4-1.4,1.4H14.6"/>
		<path fill="#606060" d="M64.7,44.3c0.8,0,1.4,0.6,1.4,1.4v27.6c0,0.4-0.3,0.7-0.7,0.7H14.6c-0.4,0-0.7-0.3-0.7-0.7V45.7
			c0-0.8,0.6-1.4,1.4-1.4H64.7 M64.7,43H15.3c-1.5,0-2.7,1.2-2.7,2.7v27.6c0,1.1,0.9,2,2,2h50.8c1.1,0,2-0.9,2-2V45.7
			C67.4,44.2,66.2,43,64.7,43L64.7,43z"/>
	</g>
	<circle fill="#BFBFBF" cx="40" cy="59.2" r="3.3"/>
	
		<path fill="#FCD9B7" stroke="#606060" stroke-width="1.3221" stroke-linecap="round" stroke-linejoin="round" stroke-miterlimit="10" d="
		M40.7,35.4H40c-5.8,0-10.6-4.7-10.6-10.6V9h21.8v15.9C51.2,30.7,46.5,35.4,40.7,35.4z"/>
	<circle fill="#606060" cx="36" cy="21.9" r="1.3"/>
	<circle fill="#606060" cx="44.6" cy="21.9" r="1.3"/>
	
		<path fill="none" stroke="#606060" stroke-width="1.3221" stroke-linecap="round" stroke-linejoin="round" stroke-miterlimit="10" d="
		M34.7,18.9h2.6"/>
	
		<path fill="none" stroke="#606060" stroke-width="1.3221" stroke-linecap="round" stroke-linejoin="round" stroke-miterlimit="10" d="
		M43.3,18.9h2.6"/>
	<path fill="#AE805E" d="M45.3,12.6c0,0,3.9,1.9,4,8.3l1.3-0.3V9.3L45.3,12.6"/>
	<path fill="#AE805E" d="M33.5,14.2c-1,1.3-2.1,3.4-2.1,6.7l-1.3-0.7v-5.6L33.5,14.2"/>
	
		<path fill="none" stroke="#606060" stroke-width="1.3221" stroke-linecap="round" stroke-linejoin="round" stroke-miterlimit="10" d="
		M44.8,29.1c0,1.3-2,2.3-4.5,2.3"/>
	
		<path fill="none" stroke="#606060" stroke-width="1.3254" stroke-linecap="round" stroke-linejoin="round" stroke-miterlimit="10" d="
		M33.5,14.2c-1,1.3-2.1,3.4-2.1,6.7l-2-0.7"/>
	
		<path fill="none" stroke="#606060" stroke-width="1.3254" stroke-linecap="round" stroke-linejoin="round" stroke-miterlimit="10" d="
		M45.3,12.6c0,0,3.9,1.9,4,8.3l2-0.7"/>
	
		<path fill="#AE805E" stroke="#606060" stroke-width="1.3254" stroke-linecap="round" stroke-linejoin="round" stroke-miterlimit="10" d="
		M33.8,14c-0.8,0-1.6,0.6-2.4,0.6c-2.9,0-5.3-2.4-5.3-5.3S28.5,4,31.4,4c1.1,0,2,0.3,2.9,0.8c0,0,9.7,6.4,19.6,0.5
		C53.9,5.3,49.5,14.7,33.8,14L33.8,14z"/>
	<g>
		<path fill="#FFFFFF" d="M23.7,59.7l-5.4-3.9c-0.4-0.3-0.5-0.7-0.4-1.2l1.7-5.3c0.1-0.4,0.5-0.6,0.8-0.6c0.4,0,0.7,0.2,0.8,0.6
			l1,3.1h2.8l1-3.1c0.1-0.4,0.4-0.6,0.8-0.6c0,0,0,0,0,0c0.4,0,0.7,0.2,0.8,0.6l1.7,5.3c0.1,0.4,0,0.9-0.4,1.2L23.7,59.7"/>
		<path fill="#E04329" d="M23.7,58.9l1.9-5.8h-3.8L23.7,58.9"/>
		<path fill="#FA6D26" d="M23.7,58.9l-1.9-5.8h-2.6L23.7,58.9"/>
		<path fill="#FAA126" d="M19.2,53.1l-0.6,1.8c-0.1,0.2,0,0.3,0.1,0.4l5,3.6L19.2,53.1"/>
		<path fill="#E04329" d="M19.2,53.1h2.6l-1.1-3.5c-0.1-0.2-0.3-0.2-0.4,0L19.2,53.1"/>
		<path fill="#FA6D26" d="M23.7,58.9l1.9-5.8h2.6L23.7,58.9"/>
		<path fill="#FAA126" d="M28.2,53.1l0.6,1.8c0.1,0.2,0,0.3-0.1,0.4l-5,3.6L28.2,53.1"/>
		<path fill="#E04329" d="M28.2,53.1h-2.6l1.1-3.5c0.1-0.2,0.3-0.2,0.4,0L28.2,53.1"/>
	</g>
</g>
</svg>
